{
  "__type__": "cc.AnimationClip",
  "_name": "flower",
  "_objFlags": 0,
  "_native": "",
  "_duration": 0.05714285714285714,
  "sample": 35,
  "speed": 0.1,
  "wrapMode": 2,
  "curveData": {
    "comps": {
      "cc.Sprite": {
        "spriteFrame": [
          {
            "frame": 0,
            "value": {
              "__uuid__": "c660d047-eaff-4d76-b1e1-d9f7b428d876"
            }
          },
          {
            "frame": 0.02857142857142857,
            "value": {
              "__uuid__": "865006db-595a-4a07-b53f-1a3374a9b504"
            }
          }
        ]
      }
    }
  },
  "events": []
}