{
  "__type__": "cc.AnimationClip",
  "_name": "green_run",
  "_objFlags": 0,
  "_native": "",
  "_duration": 0.06,
  "sample": 50,
  "speed": 0.2,
  "wrapMode": 2,
  "curveData": {
    "comps": {
      "cc.Sprite": {
        "spriteFrame": [
          {
            "frame": 0,
            "value": {
              "__uuid__": "c8c0d830-feb4-453e-a526-df143861f6f9"
            }
          },
          {
            "frame": 0.02,
            "value": {
              "__uuid__": "340a4e1a-b800-40fe-b2b1-d5b594eada12"
            }
          },
          {
            "frame": 0.04,
            "value": {
              "__uuid__": "a9ab3e15-4f4c-4afd-b131-29a2480d67c8"
            }
          }
        ]
      }
    }
  },
  "events": []
}